%YAML 1.1
%TAG !u! tag:unity3d.com,2011:
--- !u!1 &7467598049758181610
GameObject:
  m_ObjectHideFlags: 0
  m_CorrespondingSourceObject: {fileID: 0}
  m_PrefabInstance: {fileID: 0}
  m_PrefabAsset: {fileID: 0}
  serializedVersion: 6
  m_Component:
  - component: {fileID: 7586649307220740422}
  - component: {fileID: 1651023692656303186}
  - component: {fileID: 3236794432435149441}
  m_Layer: 0
  m_Name: StoE 1
  m_TagString: Untagged
  m_Icon: {fileID: 0}
  m_NavMeshLayer: 0
  m_StaticEditorFlags: 0
  m_IsActive: 1
--- !u!4 &7586649307220740422
Transform:
  m_ObjectHideFlags: 0
  m_CorrespondingSourceObject: {fileID: 0}
  m_PrefabInstance: {fileID: 0}
  m_PrefabAsset: {fileID: 0}
  m_GameObject: {fileID: 7467598049758181610}
  serializedVersion: 2
  m_LocalRotation: {x: 0, y: 0, z: 0, w: 1}
  m_LocalPosition: {x: 0, y: 0.001, z: 0}
  m_LocalScale: {x: 1, y: 1, z: 1}
  m_ConstrainProportionsScale: 0
  m_Children:
  - {fileID: 9191363176789591581}
  m_Father: {fileID: 0}
  m_LocalEulerAnglesHint: {x: 0, y: 0, z: 0}
--- !u!65 &1651023692656303186
BoxCollider:
  m_ObjectHideFlags: 0
  m_CorrespondingSourceObject: {fileID: 0}
  m_PrefabInstance: {fileID: 0}
  m_PrefabAsset: {fileID: 0}
  m_GameObject: {fileID: 7467598049758181610}
  m_Material: {fileID: 0}
  m_IncludeLayers:
    serializedVersion: 2
    m_Bits: 0
  m_ExcludeLayers:
    serializedVersion: 2
    m_Bits: 0
  m_LayerOverridePriority: 0
  m_IsTrigger: 1
  m_ProvidesContacts: 0
  m_Enabled: 1
  serializedVersion: 3
  m_Size: {x: 20, y: 10, z: 20}
  m_Center: {x: 0, y: 0, z: 0}
--- !u!114 &3236794432435149441
MonoBehaviour:
  m_ObjectHideFlags: 0
  m_CorrespondingSourceObject: {fileID: 0}
  m_PrefabInstance: {fileID: 0}
  m_PrefabAsset: {fileID: 0}
  m_GameObject: {fileID: 7467598049758181610}
  m_Enabled: 1
  m_EditorHideFlags: 0
  m_Script: {fileID: 11500000, guid: ee547014e5dde4cde94015276fb3291e, type: 3}
  m_Name: 
  m_EditorClassIdentifier: 
  levelLayoutGenerator: {fileID: 0}
--- !u!1001 &576726685690458788
PrefabInstance:
  m_ObjectHideFlags: 0
  serializedVersion: 2
  m_Modification:
    serializedVersion: 3
    m_TransformParent: {fileID: 7586649307220740422}
    m_Modifications:
    - target: {fileID: 4621082808615975708, guid: 1f846a3e612cb43c9a54aea7a4a9fed8, type: 3}
      propertyPath: m_Mesh
      value: 
      objectReference: {fileID: -8047162107705789629, guid: 85a6f2478a3714c00bf75fde46cb9715, type: 3}
    - target: {fileID: 6908756519303996762, guid: 1f846a3e612cb43c9a54aea7a4a9fed8, type: 3}
      propertyPath: m_Mesh
      value: 
      objectReference: {fileID: -8047162107705789629, guid: 85a6f2478a3714c00bf75fde46cb9715, type: 3}
    - target: {fileID: 7466411897278246592, guid: 1f846a3e612cb43c9a54aea7a4a9fed8, type: 3}
      propertyPath: m_Enabled
      value: 0
      objectReference: {fileID: 0}
    - target: {fileID: 7973778070060260410, guid: 1f846a3e612cb43c9a54aea7a4a9fed8, type: 3}
      propertyPath: m_Enabled
      value: 0
      objectReference: {fileID: 0}
    - target: {fileID: 8615027379866645689, guid: 1f846a3e612cb43c9a54aea7a4a9fed8, type: 3}
      propertyPath: m_LocalPosition.x
      value: -10
      objectReference: {fileID: 0}
    - target: {fileID: 8615027379866645689, guid: 1f846a3e612cb43c9a54aea7a4a9fed8, type: 3}
      propertyPath: m_LocalPosition.y
      value: 0
      objectReference: {fileID: 0}
    - target: {fileID: 8615027379866645689, guid: 1f846a3e612cb43c9a54aea7a4a9fed8, type: 3}
      propertyPath: m_LocalPosition.z
      value: -10
      objectReference: {fileID: 0}
    - target: {fileID: 8615027379866645689, guid: 1f846a3e612cb43c9a54aea7a4a9fed8, type: 3}
      propertyPath: m_LocalRotation.w
      value: 1
      objectReference: {fileID: 0}
    - target: {fileID: 8615027379866645689, guid: 1f846a3e612cb43c9a54aea7a4a9fed8, type: 3}
      propertyPath: m_LocalRotation.x
      value: -0
      objectReference: {fileID: 0}
    - target: {fileID: 8615027379866645689, guid: 1f846a3e612cb43c9a54aea7a4a9fed8, type: 3}
      propertyPath: m_LocalRotation.y
      value: -0
      objectReference: {fileID: 0}
    - target: {fileID: 8615027379866645689, guid: 1f846a3e612cb43c9a54aea7a4a9fed8, type: 3}
      propertyPath: m_LocalRotation.z
      value: -0
      objectReference: {fileID: 0}
    - target: {fileID: 8615027379866645689, guid: 1f846a3e612cb43c9a54aea7a4a9fed8, type: 3}
      propertyPath: m_LocalEulerAnglesHint.x
      value: 0
      objectReference: {fileID: 0}
    - target: {fileID: 8615027379866645689, guid: 1f846a3e612cb43c9a54aea7a4a9fed8, type: 3}
      propertyPath: m_LocalEulerAnglesHint.y
      value: 0
      objectReference: {fileID: 0}
    - target: {fileID: 8615027379866645689, guid: 1f846a3e612cb43c9a54aea7a4a9fed8, type: 3}
      propertyPath: m_LocalEulerAnglesHint.z
      value: 0
      objectReference: {fileID: 0}
    - target: {fileID: 8990708149757898243, guid: 1f846a3e612cb43c9a54aea7a4a9fed8, type: 3}
      propertyPath: m_Name
      value: StoE
      objectReference: {fileID: 0}
    - target: {fileID: 8990708149757898243, guid: 1f846a3e612cb43c9a54aea7a4a9fed8, type: 3}
      propertyPath: m_IsActive
      value: 1
      objectReference: {fileID: 0}
    m_RemovedComponents:
    - {fileID: 7466411897278246592, guid: 1f846a3e612cb43c9a54aea7a4a9fed8, type: 3}
    - {fileID: 7973778070060260410, guid: 1f846a3e612cb43c9a54aea7a4a9fed8, type: 3}
    m_RemovedGameObjects: []
    m_AddedGameObjects: []
    m_AddedComponents: []
  m_SourcePrefab: {fileID: 100100000, guid: 1f846a3e612cb43c9a54aea7a4a9fed8, type: 3}
--- !u!4 &9191363176789591581 stripped
Transform:
  m_CorrespondingSourceObject: {fileID: 8615027379866645689, guid: 1f846a3e612cb43c9a54aea7a4a9fed8, type: 3}
  m_PrefabInstance: {fileID: 576726685690458788}
  m_PrefabAsset: {fileID: 0}
