%YAML 1.1
%TAG !u! tag:unity3d.com,2011:
--- !u!114 &11400000
MonoBehaviour:
  m_ObjectHideFlags: 0
  m_CorrespondingSourceObject: {fileID: 0}
  m_PrefabInstance: {fileID: 0}
  m_PrefabAsset: {fileID: 0}
  m_GameObject: {fileID: 0}
  m_Enabled: 1
  m_EditorHideFlags: 0
  m_Script: {fileID: 11500000, guid: ce15087727dc24fed86ad1e8f265e9e8, type: 3}
  m_Name: North West
  m_EditorClassIdentifier: 
  chunkSize: {x: 20, y: 20}
  levelChunks:
  - {fileID: 1336353047451261811, guid: c673a16f8e21940a2bcae9bca71b4de1, type: 3}
  entryDirection: 0
  exitDirection: 3
